Assessment_1C_bco7000
…
10
Mcdonalds
Double Quarter Pounder with Cheese
770
400

Arranging observations top_n()

fastfood%>% top_n(10)

## Selecting by salad

## # A tibble: 515 x 18
##     ...1 restaurant item            calories cal_fat total_fat sat_fat trans_fat
##    <dbl> <chr>      <chr>              <dbl>   <dbl>     <dbl>   <dbl>     <dbl>
##  1     1 Mcdonalds  Artisan Grille~      380      60         7       2       0  
##  2     2 Mcdonalds  Single Bacon S~      840     410        45      17       1.5
##  3     3 Mcdonalds  Double Bacon S~     1130     600        67      27       3  
##  4     4 Mcdonalds  Grilled Bacon ~      750     280        31      10       0.5
##  5     5 Mcdonalds  Crispy Bacon S~      920     410        45      12       0.5
##  6     6 Mcdonalds  Big Mac              540     250        28      10       1  
##  7     7 Mcdonalds  Cheeseburger         300     100        12       5       0.5
##  8     8 Mcdonalds  Classic Chicke~      510     210        24       4       0  
##  9     9 Mcdonalds  Double Cheeseb~      430     190        21      11       1  
## 10    10 Mcdonalds  Double Quarter~      770     400        45      21       2.5
## # ... with 505 more rows, and 10 more variables: cholesterol <dbl>,
## #   sodium <dbl>, total_carb <dbl>, fiber <dbl>, sugar <dbl>, protein <dbl>,
## #   vit_a <dbl>, vit_c <dbl>, calcium <dbl>, salad <chr>

Display the observations that has more than 1000 calories

fastfood%>%filter(calories>1000)

## # A tibble: 28 x 18
##     ...1 restaurant item            calories cal_fat total_fat sat_fat trans_fat
##    <dbl> <chr>      <chr>              <dbl>   <dbl>     <dbl>   <dbl>     <dbl>
##  1     3 Mcdonalds  Double Bacon S~     1130     600        67      27       3  
##  2    38 Mcdonalds  10 piece Butte~     1210     630        70      12       1  
##  3    39 Mcdonalds  12 piece Butte~     1510     790        88      15       1  
##  4    40 Mcdonalds  20 piece Butte~     2430    1270       141      24       2  
##  5    45 Mcdonalds  40 piece Chick~     1770     960       107      18       0.5
##  6    48 Mcdonalds  10 piece Sweet~     1600     600        66      10       0  
##  7    99 Sonic      Super Sonic Ba~     1280     830        92      36       4  
##  8   100 Sonic      Super Sonic Do~     1120     680        76      32       4  
##  9   101 Sonic      Super Sonic Do~     1130     680        76      32       4  
## 10   102 Sonic      Super Sonic Do~     1220     780        87      34       4  
## # ... with 18 more rows, and 10 more variables: cholesterol <dbl>,
## #   sodium <dbl>, total_carb <dbl>, fiber <dbl>, sugar <dbl>, protein <dbl>,
## #   vit_a <dbl>, vit_c <dbl>, calcium <dbl>, salad <chr>
…
Add a variable to the dataset, which calculates the sum of
cholesterol and sodium and call it cholesterol_sodium.

fastfood%>%mutate(cholesterol_sodium=cholesterol+sodium)

## # A tibble: 515 x 19
##     ...1 restaurant item            calories cal_fat total_fat sat_fat trans_fat
##    <dbl> <chr>      <chr>              <dbl>   <dbl>     <dbl>   <dbl>     <dbl>
##  1     1 Mcdonalds  Artisan Grille~      380      60         7       2       0  
##  2     2 Mcdonalds  Single Bacon S~      840     410        45      17       1.5
##  3     3 Mcdonalds  Double Bacon S~     1130     600        67      27       3  
##  4     4 Mcdonalds  Grilled Bacon ~      750     280        31      10       0.5
##  5     5 Mcdonalds  Crispy Bacon S~      920     410        45      12       0.5
##  6     6 Mcdonalds  Big Mac              540     250        28      10       1  
##  7     7 Mcdonalds  Cheeseburger         300     100        12       5       0.5
##  8     8 Mcdonalds  Classic Chicke~      510     210        24       4       0  
##  9     9 Mcdonalds  Double Cheeseb~      430     190        21      11       1  
## 10    10 Mcdonalds  Double Quarter~      770     400        45      21       2.5
## # ... with 505 more rows, and 11 more variables: cholesterol <dbl>,
## #   sodium <dbl>, total_carb <dbl>, fiber <dbl>, sugar <dbl>, protein <dbl>,
## #   vit_a <dbl>, vit_c <dbl>, calcium <dbl>, salad <chr>,
## #   cholesterol_sodium <dbl>

Remove the variable salad

fastfood%>%select(-salad)

## # A tibble: 515 x 17
##     ...1 restaurant item            calories cal_fat total_fat sat_fat trans_fat
##    <dbl> <chr>      <chr>              <dbl>   <dbl>     <dbl>   <dbl>     <dbl>
##  1     1 Mcdonalds  Artisan Grille~      380      60         7       2       0  
##  2     2 Mcdonalds  Single Bacon S~      840     410        45      17       1.5
##  3     3 Mcdonalds  Double Bacon S~     1130     600        67      27       3  
##  4     4 Mcdonalds  Grilled Bacon ~      750     280        31      10       0.5
##  5     5 Mcdonalds  Crispy Bacon S~      920     410        45      12       0.5
##  6     6 Mcdonalds  Big Mac              540     250        28      10       1  
##  7     7 Mcdonalds  Cheeseburger         300     100        12       5       0.5
##  8     8 Mcdonalds  Classic Chicke~      510     210        24       4       0  
##  9     9 Mcdonalds  Double Cheeseb~      430     190        21      11       1  
## 10    10 Mcdonalds  Double Quarter~      770     400        45      21       2.5
## # ... with 505 more rows, and 9 more variables: cholesterol <dbl>,
## #   sodium <dbl>, total_carb <dbl>, fiber <dbl>, sugar <dbl>, protein <dbl>,
## #   vit_a <dbl>, vit_c <dbl>, calcium <dbl>
…
